KeyLinkID
1
2
3
4
6
7
8
9
10
14
16
17
18
19
20
23
24
25
26
27
28
29
30
31
32
33
34
37
38
39
40
41
42
43
44
45
46
47
48
49
50
51
54
55
56
57
58
59
60
61
62
63
64
68
69
70
71
72
73
74
75
76
77
78
79
80
81
83
84
86
95
96
99
100
101
102
103
104
105
106
107
109
110
111
112
113
114
115
116
118
119
120
121
128
129
131
133
135
137
139
141
143
145
147
149
150
151
152
153
154
155
156
157
158
159
160
162
165
166
167
168
169
170
171
172
173
174
175
176
177
178
179
181
182
183
184
185
188
189
190
191
192
193
195
196
197
198
199
200
201
202
203
204
205
206
210
211
212
213
214
215
216
217
218
219
220
221
222
223
227
228
229
230
231
235
236
242
243
244
245
246
247
249
251
252
253