KeyLinkID
3
5
9
10
11
14
17
18
22
23
27
32
33
34
35
36
37
38
41
42
43
47
50
51
52
57
60
62
63
64
65
66
70
71
72
73
74
75
76
77
78
79
80
81
82
83
84
85
86
87
88
89
92
93
94
95
96
97
98
99
101
102
103
107
108
111
112
113
115
116
117
121
125
127
128
129
132
133
134
136
137
138
139
140
141
143
144
145
146
147
148
149
150
151
152
153
154
155
157
158
159
161
163
164
167
168
169
170
171
172
173
174
175
177
178
179
182
183
184
185
188
189
190
192
196
197
198
199
200
203
205
206
208
209
210
211
212
213
214
215
216
217
218
219
220
221
222
223
226
232
233
236
237
239
241
242
243
244
246
247
248
250
255
256
263
264
265
266
267
269
270
271
275
276
277
278
279
280
281
282
286
287
288
289
290
293
294
295
300
303
304
305
306
307
308
309
310
313
316
318
319
321
325
326
327
328
330
332
335
336
337
338
339
342
344
345
347
349
350
351
352
353
357
358
359
362
363
365
366
368
369
370
371
372
374
376
377
378
379
380
381
382
383
384
385
386
388
389
392
393
394
395
396
398
399
400
401
402
404
405
406
407
408
410
412
416
417
418
419
425
426
427
428
429
430
431
432
433
436
437
438
439
441
444
448
451
452
453
456
458
461
462
464
466
468
471
472
473
474
475
476
477
480
481
484
485
486
489
490
491
493
494
495
496
500
502
503
504
506
507
510
511
512
513
514
515
517
518
519
520
521
527
529
530
534
535
539
540
543
544
545
546
547
548
550
553
554
555
557
561
562
563
564
566
568
569
570
571
572
573
574
576
577
578
579
580
581
582
583
584
585
586
587
588
589
590
591
592
597
598
599
600
603
604
605
606
607
608
609
610
611
612
613
614
615
616
617
618
619
620
621
622
626
627
628
629
630
631
632
633
634
635
636
637
638
639
640
641
642
643
644
645
646
647
648
651
652
656
657
658
659
661
662
664
665
666
668
669
670
671
674
675
677
678
681
684
685
686
687
692
694
696
699
700
701
702
703
704
705
706
707
708
709
710
711
712
713
715
716
717
718
720
721
722
723
724
725
726
727
728
729
730
731
732
733
734
735
736
737
738
739
740
741
742
743
744
745
746
747
748
749
750
751
752
753
754
755
756
757
758
759
760
761
762
763
764
765
766
767
768
769
770
771
772
773
775
776
777
778
779
780
781
782
783
784
785
786
787
788
789
790
791
792
793
794
795
796
797
798
799
800
801
802
803
804
805
808
809
810
811
812
813
814
815
816
817
818
836
837
838
839
840
841
842
844
845
847
848
850
851
852
853
854
855
858
859
860
861
862
866
867
868
871
873
874
875
876
877
878
879
881
882
883
885
886
887
888
891
892
893
894
895
896
897
898
899
900
901
903
905
907
908
909
910
911
912
913
914
915
916
917
918
919
920
921
922
923
925
926
930
931
932
934
935
938
939
941
942
944
946
947
948
949
951
952
953
954
958
959
960
962
963
964
965
967
971
972
973
974
975
982
983
984
985
986
988
989
990
991
996
997
998
999
1000
1001
1002
1003
1004
1005
1006
1008
1010
1011
1013
1014
1015
1016
1018
1019
1021
1022
1023
1024
1025
1026
1027
1028
1029
1030
1031
1032
1033
1036
1037
1038
1039
1040
1041
1042
1044
1046
1048
1049
1050
1051
1052
1054
1056
1058
1060
1061
1063
1064
1065
1067
1069
1070
1071
1073
1074
1075
1082
1087
1089
1090
1093
1094
1097
1098
1100
1101
1102
1103
1105
1106
1107
1108
1110
1111
1112
1113
1115
1116
1117
1120
1121
1122
1123
1126
1127
1128
1136
1137
1139
1140
1141
1142
1143
1144
1145
1146
1147
1148
1149
1150
1151
1153
1154
1155
1156
1157
1158
1159
1160
1161
1162
1163
1164
1167
1170
1171
1172
1173
1174
1175
1176
1177
1178
1180
1181
1184
1185
1186
1187
1188
1189
1190
1191
1192
1193
1194
1195
1196
1198
1200
1201
1206
1208
1210
1212
1213
1214
1215
1217
1218
1220
1221
1222
1223
1225
1226
1228
1229
1230
1231
1235
1236
1239
1240
1241
1243
1244
1245
1246
1247
1248
1249
1250
1252
1253
1254
1255
1256
1257
1258
1260
1262
1263
1264
1265
1266
1267
1268
1269
1270
1272
1273
1275
1276
1278
1279
1280
1281
1282
1283
1284
1285
1286
1287
1288
1289
1291
1293
1294
1295
1297
1299
1300
1302
1304
1305
1306
1307
1310
1311
1313
1314
1315
1316
1317
1318
1319
1320
1321
1322
1323
1324
1325
1326
1327
1328
1329
1330
1331
1332
1333
1334
1335
1336
1337
1338
1339
1340
1341
1342
1343
1344
1345
1346
1347
1348
1349
1350
1351
1352
1354
1355
1356
1357
1359
1360
1361
1362
1363
1364
1365
1366
1367
1368
1369
1370
1371
1372
1373
1374
1375
1376
1377
1378
1379
1380
1383
1392
1393
1394
1395
1396
1407
1408
1409
1410
1414
1418
1419
1421
1422
1427
1428
1429
1430
1433
1434
1435
1436
1437
1438
1439
1440
1441
1442
1443
1446
1447
1448
1449
1451
1453
1454
1455
1456
1457
1458
1460
1461
1462
1463
1464
1467
1468
1470
1471
1472
1473
1474
1475
1476
1477
1478
1479
1480
1481
1482
1485
1486
1487
1488
1489
1492
1493
1494
1495
1496
1497
1498
1499
1500
1501
1502
1503
1504
1505
1506
1507
1508
1509
1510
1511
1512
1513
1514
1515
1516
1518
1519
1520
1521
1523
1525
1526
1527
1528
1529
1530
1531
1533
1534
1535
1536
1537
1538